{
    "project_name": "PDM Project Template",
    "app_description": "Boilerplate code for PDM projects.",
    "repo_name": "{{cookiecutter.project_name.lower().replace(' ', '_')}}",
    "py_ver": "3.10",
    "log_level": "INFO",
    "app_name": "{{cookiecutter.project_name}}",
    "app_ver": "0.1",
    "app_author_name": "None",
    "app_author_email": "none@none.com",
    "variables": {
        "pyproject": {
            "name": "{{cookiecutter.repo_name}}",
            "description": "{{cookiecutter.app_description}}",
            "version": "{{cookiecutter.app_ver}}",
            "author": {
                "name": "{{cookiecutter.app_author_name}}",
                "email": "{{cookiecutter.app_author_email}}"
            },
            "requires_python": "{{cookiecutter.py_ver}}"
        },
        "logging": {
            "log_level": "{{cookiecutter.log_level}}"
        }
    }
}